\relax 
\@writefile{lof}{\contentsline {figure}{\numberline {1}{\ignorespaces Worst case with $n \leq k$}}{2}\protected@file@percent }
\newlabel{fig1}{{1}{2}}
\@writefile{lof}{\contentsline {figure}{\numberline {2}{\ignorespaces Average case with $n \leq k$}}{2}\protected@file@percent }
\newlabel{fig1}{{2}{2}}
\@writefile{lof}{\contentsline {figure}{\numberline {3}{\ignorespaces Best case with $n \leq k$}}{2}\protected@file@percent }
\newlabel{fig1}{{3}{2}}
\@writefile{lof}{\contentsline {figure}{\numberline {4}{\ignorespaces Worst case with $n > k$}}{3}\protected@file@percent }
\newlabel{fig1}{{4}{3}}
\@writefile{lof}{\contentsline {figure}{\numberline {5}{\ignorespaces Average case with $n > k$}}{4}\protected@file@percent }
\newlabel{fig1}{{5}{4}}
\@writefile{lof}{\contentsline {figure}{\numberline {6}{\ignorespaces Best case with $n > k$}}{4}\protected@file@percent }
\newlabel{fig1}{{6}{4}}
