\relax 
\@writefile{lof}{\contentsline {figure}{\numberline {1}{\ignorespaces Figure for question 2.1}}{4}\protected@file@percent }
\newlabel{fig1}{{1}{4}}
\@writefile{lof}{\contentsline {figure}{\numberline {2}{\ignorespaces Figure for question 2.1}}{5}\protected@file@percent }
\newlabel{fig1}{{2}{5}}
\@writefile{lof}{\contentsline {figure}{\numberline {3}{\ignorespaces Figure for question 2.1}}{6}\protected@file@percent }
\newlabel{fig1}{{3}{6}}
\@writefile{lof}{\contentsline {figure}{\numberline {4}{\ignorespaces Figure for question 2.1}}{6}\protected@file@percent }
\newlabel{fig1}{{4}{6}}
